<svg width="22" height="14" viewBox="0 0 22 14" fill="none" xmlns="http://www.w3.org/2000/svg">
<path d="M20.8297 10.9719V10.7231H20.767L20.6943 10.894L20.6221 10.7231H20.5589V10.9719H20.6035V10.7843L20.6714 10.9462H20.7176L20.7855 10.7839V10.9719H20.8297ZM20.4314 10.9719V10.7655H20.5119V10.7235H20.3066V10.7655H20.3872V10.9719H20.4314Z" fill="#F79410"/>
<path d="M13.708 12.0406H8.28661V1.97266H13.708V12.0406Z" fill="#FF5F00"/>
<path d="M8.6335 7.00469C8.6335 4.96235 9.55889 3.1431 11 1.97069C9.94614 1.11337 8.61616 0.601669 7.17076 0.601669C3.7489 0.601669 0.975097 3.46835 0.975097 7.00469C0.975097 10.541 3.7489 13.4077 7.17076 13.4077C8.61616 13.4077 9.94614 12.896 11 12.0387C9.55889 10.8663 8.6335 9.04703 8.6335 7.00469Z" fill="#EB001B"/>
<path d="M21.0223 7.00298C21.0223 10.5393 18.2485 13.406 14.8267 13.406C13.3813 13.406 12.0513 12.8943 10.9971 12.037C12.4385 10.8646 13.3639 9.04532 13.3639 7.00298C13.3639 4.96064 12.4385 3.14139 10.9971 1.96898C12.0513 1.11167 13.3813 0.59996 14.8267 0.59996C18.2485 0.59996 21.0223 3.46665 21.0223 7.00298Z" fill="#F79E1B"/>
</svg>
