<svg width="30" height="29" viewBox="0 0 30 29" fill="none" xmlns="http://www.w3.org/2000/svg">
<path d="M27.375 5.99997H21.6544C21.3888 4.42723 20.5747 2.99939 19.3566 1.96973C18.1385 0.940059 16.595 0.375122 15 0.375122C13.405 0.375122 11.8615 0.940059 10.6434 1.96973C9.42528 2.99939 8.61122 4.42723 8.34562 5.99997H2.625C2.02847 6.00064 1.45656 6.23791 1.03475 6.65972C0.612938 7.08153 0.37567 7.65344 0.375 8.24997V26.25C0.37567 26.8465 0.612938 27.4184 1.03475 27.8402C1.45656 28.262 2.02847 28.4993 2.625 28.5H27.375C27.9715 28.4993 28.5434 28.262 28.9653 27.8402C29.3871 27.4184 29.6243 26.8465 29.625 26.25V8.24997C29.6243 7.65344 29.3871 7.08153 28.9653 6.65972C28.5434 6.23791 27.9715 6.00064 27.375 5.99997ZM15 2.62497C15.9974 2.62627 16.9661 2.95826 17.7546 3.56897C18.5431 4.17969 19.1069 5.03464 19.3575 5.99997H10.6425C10.8931 5.03464 11.4569 4.17969 12.2454 3.56897C13.0339 2.95826 14.0026 2.62627 15 2.62497Z" fill="#008D36"/>
</svg>
