Codigos
npx cap add android
npx cap open android
serve -s build
_______________________________________________________________________________________________________________________

npm install
npm run build
npx cap sync
npx cap add android
npx cap open android

Añadir spash

Requisitos
$ npm install -g cordova-res
npm install capacitor-resources -g


Folder
resources/
├── icon.png
└── splash.png

$ cordova-res ios --skip-config --copy
$ cordova-res android --skip-config --copy
    --Angular 3 no va
npm run start

Android: para abrir Android Studio para compilar el archivo APK y ejecutar el siguiente comando

npx cap open android  --Angular 3 no va

iOS: para abrir el Xcode para compilar el archivo IPA y ejecutar el siguiente comando

npx cap open ios --Angular 3 no va
_________________________________________________________________________________________________________________________
Angular 4 y 5

ionic cordova platform add android
ionic cordova run android

npm install npm –g

npm install cordova ionic –g
npm install -g npm
npm run start

________________________________-

npm install -g firebase-tools
firebase login:ci
firebase init
ionic build --prod
firebase deploy

_________________________________
ionic cordova build --release android

_________________________________________________________________
POWER SHELL

keytool -genkey -v -keystore my-release-key.keystore -alias UserApp -keyalg RSA -keysize 2048 -validity 10000
jarsigner -verbose -sigalg SHA1withRSA -digestalg SHA1 -keystore my-release-key.keystore app-release-unsigned.apk UserApp
zipalign -v 4 app-release-unsigned.apk palmago.apk




