{
  "configVersion": 1,
  "timestamp": 1633013222845,
  "index": "/index.html",
  "assetGroups": [
    {
      "name": "app",
      "installMode": "prefetch",
      "updateMode": "prefetch",
      "cacheQueryOptions": {
        "ignoreVary": true
      },
      "urls": [
        "/0.js",
        "/1.js",
        "/10.js",
        "/11.js",
        "/12.js",
        "/13.js",
        "/14.js",
        "/15.js",
        "/16.js",
        "/17.js",
        "/18.js",
        "/19.js",
        "/2.js",
        "/20.js",
        "/21.js",
        "/22.js",
        "/23.js",
        "/24.js",
        "/25.js",
        "/26.js",
        "/27.js",
        "/28.js",
        "/29.js",
        "/3.js",
        "/30.js",
        "/31.js",
        "/32.js",
        "/33.js",
        "/34.js",
        "/35.js",
        "/36.js",
        "/37.js",
        "/38.js",
        "/39.js",
        "/4.js",
        "/40.js",
        "/41.js",
        "/42.js",
        "/5.js",
        "/6.js",
        "/7.js",
        "/8.js",
        "/9.js",
        "/common.js",
        "/default~pages-confirm-transfers-confirm-transfers-module~pages-history-history-module~pages-modals-i~d44f8de8.js",
        "/default~pages-dashboard-dashboard-module~pages-modals-in-travel-modal-in-travel-modal-module~pages-m~9330d6cd.js",
        "/default~pages-dashboard-dashboard-module~pages-modals-start-travel-start-travel-module.js",
        "/default~pages-login-login-module~pages-register-register-module.js",
        "/default~pages-modals-in-travel-modal-in-travel-modal-module~pages-travel-travel-module.js",
        "/default~pages-modals-recommendations-modal-recommendations-modal-module~pages-recommendations-recomm~657c8d3c.js",
        "/default~pages-modals-schedule-trip-modal-schedule-trip-modal-module~pages-schedule-trip-schedule-trip-module.js",
        "/default~pages-modals-select-destination-modal-select-destination-modal-module~pages-select-destinati~7073e38f.js",
        "/default~pages-modals-transfer-modal-transfer-modal-module~pages-transfer-transfer-module.js",
        "/default~pages-modals-travel-details-modal-travel-details-modal-module~pages-travel-details-travel-de~ec48b730.js",
        "/focus-visible-f4ad4f1a-js.js",
        "/index.html",
        "/input-shims-73f15161-js.js",
        "/keyboard-5742b5da-js.js",
        "/main.js",
        "/manifest.webmanifest",
        "/modules-dashboard-dashboard-module.js",
        "/modules-dashboard-pages-new-stop-new-stop-module.js",
        "/modules-home-home-module.js",
        "/modules-home-pages-logout-logout-module.js",
        "/pages-bank-data-bank-data-module.js",
        "/pages-chat-chat-module.js",
        "/pages-confirm-transfers-confirm-transfers-module.js",
        "/pages-confirmed-trip-confirmed-trip-module.js",
        "/pages-dashboard-dashboard-module.js",
        "/pages-destination-address-destination-address-module.js",
        "/pages-driver-detail-driver-detail-module.js",
        "/pages-edit-vehicle-data-edit-vehicle-data-module.js",
        "/pages-email-verification-email-verification-module.js",
        "/pages-forgot-password-forgot-password-module.js",
        "/pages-history-history-module.js",
        "/pages-home-home-module.js",
        "/pages-login-login-module.js",
        "/pages-modals-destination-address-modal-destination-address-modal-module.js",
        "/pages-modals-in-travel-modal-in-travel-modal-module.js",
        "/pages-modals-recommendations-modal-recommendations-modal-module.js",
        "/pages-modals-schedule-trip-modal-schedule-trip-modal-module.js",
        "/pages-modals-select-destination-modal-select-destination-modal-module.js",
        "/pages-modals-select-payment-modal-select-payment-modal-module.js",
        "/pages-modals-select-route-modal-select-route-modal-module.js",
        "/pages-modals-select-stop-modal-select-stop-modal-module.js",
        "/pages-modals-select-stop-schedule-modal-select-stop-schedule-modal-module.js",
        "/pages-modals-select-vehicle-type-select-vehicle-type-module.js",
        "/pages-modals-start-travel-start-travel-module.js",
        "/pages-modals-transfer-modal-transfer-modal-module.js",
        "/pages-modals-travel-details-modal-travel-details-modal-module.js",
        "/pages-modals-ubication-destination-schedule-modal-ubication-destination-schedule-modal-module.js",
        "/pages-profile-profile-module.js",
        "/pages-recommendations-recommendations-module.js",
        "/pages-register-register-module.js",
        "/pages-request-menu-request-menu-module.js",
        "/pages-requests-requests-module.js",
        "/pages-review-transfer-review-transfer-module.js",
        "/pages-reviews-reviews-module.js",
        "/pages-schedule-trip-schedule-trip-module.js",
        "/pages-search-complete-search-complete-module.js",
        "/pages-search-driver-search-driver-module.js",
        "/pages-select-destination-select-destination-module.js",
        "/pages-select-payment-type-select-payment-type-module.js",
        "/pages-select-route-select-route-module.js",
        "/pages-select-stop-schedule-select-stop-schedule-module.js",
        "/pages-select-stop-select-stop-module.js",
        "/pages-select-vehicle-select-vehicle-module.js",
        "/pages-shipping-parameters-shipping-parameters-module.js",
        "/pages-stops-stops-module.js",
        "/pages-successful-arrival-successful-arrival-module.js",
        "/pages-transfer-transfer-module.js",
        "/pages-travel-complete-travel-complete-module.js",
        "/pages-travel-details-travel-details-module.js",
        "/pages-travel-travel-module.js",
        "/pages-ubication-destination-schedule-ubication-destination-schedule-module.js",
        "/pages-user-detail-user-detail-module.js",
        "/pages-users-users-module.js",
        "/polyfills-core-js.js",
        "/polyfills-css-shim.js",
        "/polyfills-dom.js",
        "/polyfills.js",
        "/runtime.js",
        "/shadow-css-a3f00b33-js.js",
        "/status-tap-bdecfebf-js.js",
        "/styles.css",
        "/swipe-back-ee838cf8-js.js",
        "/swiper-bundle-44a9b1f9-js.js",
        "/tap-click-cc1ae2b2-js.js",
        "/test-test-module.js",
        "/vendor.js"
      ],
      "patterns": []
    },
    {
      "name": "assets",
      "installMode": "lazy",
      "updateMode": "prefetch",
      "cacheQueryOptions": {
        "ignoreVary": true
      },
      "urls": [
        "/assets/icon/favicon.png",
        "/assets/icons/icon-128x128.png",
        "/assets/icons/icon-144x144.png",
        "/assets/icons/icon-152x152.png",
        "/assets/icons/icon-192x192.png",
        "/assets/icons/icon-384x384.png",
        "/assets/icons/icon-512x512.png",
        "/assets/icons/icon-72x72.png",
        "/assets/icons/icon-96x96.png",
        "/assets/img/auto.png",
        "/assets/img/bye.png",
        "/assets/img/call.png",
        "/assets/img/card.png",
        "/assets/img/card.svg",
        "/assets/img/carrito1.png",
        "/assets/img/carroavios.png",
        "/assets/img/cartypes.png",
        "/assets/img/cash.png",
        "/assets/img/cash.svg",
        "/assets/img/comunity_register.png",
        "/assets/img/fb.png",
        "/assets/img/flag.png",
        "/assets/img/fondo-1.png",
        "/assets/img/fondo-2.png",
        "/assets/img/fondo-3.png",
        "/assets/img/google.png",
        "/assets/img/ic_dropoff.png",
        "/assets/img/ic_loc.png",
        "/assets/img/ico-whatsapp.png",
        "/assets/img/icon-back.svg",
        "/assets/img/icon-pets.svg",
        "/assets/img/icon-smoking.svg",
        "/assets/img/igoLogo.png",
        "/assets/img/logo_nous.png",
        "/assets/img/menu.png",
        "/assets/img/metododepago.png",
        "/assets/img/nousito.png",
        "/assets/img/persona.png",
        "/assets/img/place.png",
        "/assets/img/reloj.png",
        "/assets/img/search-car.png",
        "/assets/img/shapes.png",
        "/assets/img/standard.png",
        "/assets/img/standard_vehicle.png",
        "/assets/img/stops.png",
        "/assets/img/travel-car.png",
        "/assets/img/user.jpg",
        "/assets/img/user.png",
        "/assets/img/userProfile.png",
        "/assets/img/userProfile2.png",
        "/assets/img/vehicle-register.png",
        "/assets/shapes.svg",
        "/fondo-1.png",
        "/fondo-2.png",
        "/fondo-3.png"
      ],
      "patterns": []
    }
  ],
  "dataGroups": [],
  "hashTable": {
    "/0.js": "26236d720b602710e7e43b764047fa7c729db6b2",
    "/1.js": "d6af393396348e1fe81df0a4598796668f0f4294",
    "/10.js": "fadcc77c140e17ae518502c3fd7a0d6a99eb61aa",
    "/11.js": "06d7c22d78fc460657f81162a51033fbddb9a05e",
    "/12.js": "8f5d87ad35584d7ff0dbb11c3e0660289dac120d",
    "/13.js": "b39a4ababbea81a5f2cd61ec6595463efd4c3eee",
    "/14.js": "971c445857c09e7e89010f7c5458d5a246d8500f",
    "/15.js": "90f0faac89804b9eb2eef1d15adad1e8fe2e78bd",
    "/16.js": "a66affae21c4983d46e424c6244ecf0f70f2a86b",
    "/17.js": "278e29705130fe81316acc25fa2478630d0cf3e2",
    "/18.js": "dc07241f95325ca44dae29926be33a72137740e3",
    "/19.js": "a33624dcf73447b257c4b306c57e16200f9785d1",
    "/2.js": "4b51997d4126f8db8443dfffccd7637189226e4a",
    "/20.js": "baa18413224599dda74362e3169cd0f4683c4aca",
    "/21.js": "41ebc2d5958c16a427874f7b688cfe87f419d356",
    "/22.js": "fa86ef923b5cfefbd6c5db38f6c4d13f0de6ee21",
    "/23.js": "4941047a820b35b52648a4714101b2652d8b8739",
    "/24.js": "6e036b6177295e91230aae066e87a42e5970d537",
    "/25.js": "4db0e402f09bbabf222225dfc99f6783440c58ab",
    "/26.js": "e4672364ecb5c3688046fff222b26a98881aeb97",
    "/27.js": "ff9777a9c9ce26ebb3dba210962ab06b085c15e6",
    "/28.js": "3c39a504afc31ab604eb36c3fb5f9b68ed2640a3",
    "/29.js": "8e5d5764fbcc5c1463d911e005bbc139fe63ddd0",
    "/3.js": "7adcadb5f3e100e077d8f572a88d5a4ec85681a8",
    "/30.js": "f9d5b417f883009e698af0219f1256c7e6ae35a9",
    "/31.js": "bdd8f86b7415723bfa135364042479e80bec5b50",
    "/32.js": "94537be5cc5f99e22cc888d311f4828fec125ff2",
    "/33.js": "2548188a9fe08585990080f901eebc769c64c2b7",
    "/34.js": "3e61fbf0f12d886f74a443d72906d9d91c098795",
    "/35.js": "2170598257f2048fc904a2709819e4fa8c461e41",
    "/36.js": "612c3af6943b3271cc6666637f703ee71385f952",
    "/37.js": "b27816a0f55bcf1cdb43024e67fa00a144d4f46e",
    "/38.js": "99b73e4242ec7c68bab73e07cf5fefcb028f5010",
    "/39.js": "d07858c52e6436e3b97fc9ce77360388328daa29",
    "/4.js": "8465892c10ebe7395e7affc657ed8b5f750dfa51",
    "/40.js": "ddce99bfc67a68d26a99ecf2ec2a6dd1dd8300c9",
    "/41.js": "268161efbb364139e127608d04a649c895db04ee",
    "/42.js": "83e90f060d134faa581b25029640957ae03a4dd3",
    "/5.js": "c8ec2ad6685cd6ebeac7a073c7718d82d8599188",
    "/6.js": "f8a69ffac33d41f3933b6d35f012ec0bfd65254e",
    "/7.js": "c69a3cfd34e6d13f59a5e6c5e67125b5970e680c",
    "/8.js": "f3d9cd3e48b740c7aa99916febea50c1fe7adb92",
    "/9.js": "df4140f9d39df3118314d8f8f759806cadae4fbb",
    "/assets/icon/favicon.png": "7798b8e0eb61d7375c245af78bbf5c916932bf13",
    "/assets/icons/icon-128x128.png": "dae3b6ed49bdaf4327b92531d4b5b4a5d30c7532",
    "/assets/icons/icon-144x144.png": "b0bd89982e08f9bd2b642928f5391915b74799a7",
    "/assets/icons/icon-152x152.png": "7479a9477815dfd9668d60f8b3b2fba709b91310",
    "/assets/icons/icon-192x192.png": "1abd80d431a237a853ce38147d8c63752f10933b",
    "/assets/icons/icon-384x384.png": "329749cd6393768d3131ed6304c136b1ca05f2fd",
    "/assets/icons/icon-512x512.png": "559d9c4318b45a1f2b10596bbb4c960fe521dbcc",
    "/assets/icons/icon-72x72.png": "c457e56089a36952cd67156f9996bc4ce54a5ed9",
    "/assets/icons/icon-96x96.png": "3914125a4b445bf111c5627875fc190f560daa41",
    "/assets/img/auto.png": "4f075a355553489f34ae419974456f8f8746c141",
    "/assets/img/bye.png": "4be9c0deb7842da3b8c8ee86bb116db2fa2e99fd",
    "/assets/img/call.png": "6cdc9b22dc957976f1510d7e802da1d947ff39a9",
    "/assets/img/card.png": "c91d520843e8b9b99f3a2ecc41e9cba3fc8d908b",
    "/assets/img/card.svg": "3b07042151ce6568befe53b05cfa093b894c7acb",
    "/assets/img/carrito1.png": "bac998f73c24306248ec1049b41018a272e38cad",
    "/assets/img/carroavios.png": "92489564b798a752fead561b7ffaead0df1a7b72",
    "/assets/img/cartypes.png": "6e87a8ac47fdd8aa4e98a9eeb6d5083f2db6b6c8",
    "/assets/img/cash.png": "377347e5ebbf0ea5f8e1dafdb7022af5f9e2ae06",
    "/assets/img/cash.svg": "642e99129eae53352c9f6a6b8381cee9e6b3fd21",
    "/assets/img/comunity_register.png": "40d8c36d14bf720374046f11df5a1aed67cec952",
    "/assets/img/fb.png": "c530e75f76dcea86b185f2735ee927a220253268",
    "/assets/img/flag.png": "7bf8d0ba2f736639dfc0f702037d702c85e58e47",
    "/assets/img/fondo-1.png": "e5d05a6471d3b1df8c6766f06e70da65507bb2f7",
    "/assets/img/fondo-2.png": "287f9a1e2545d79f949f635cfce727617a88b93b",
    "/assets/img/fondo-3.png": "bea3cf53bbd85b7e069bd231fbcaa25bc7e759fd",
    "/assets/img/google.png": "4a948ba8936ae1ab603245401357166aa61401e9",
    "/assets/img/ic_dropoff.png": "c5f4abc3daea0076c44fd747ceac5694238c092e",
    "/assets/img/ic_loc.png": "dc2a01079b46945ad92719a1b29f3d1e7d2e8f7f",
    "/assets/img/ico-whatsapp.png": "550c76168c32cba1c18ff69b588d0d0660dce790",
    "/assets/img/icon-back.svg": "1c46a745d28307f1f517d0065e84f20ed7cad0b6",
    "/assets/img/icon-pets.svg": "13cc8e62dcd5f802333b0352e5009f4780aa5423",
    "/assets/img/icon-smoking.svg": "58022faf95db4289805d723fa747d5449235e0b9",
    "/assets/img/igoLogo.png": "34c1289b5824cb89ca55d8579b47676adaf5dd92",
    "/assets/img/logo_nous.png": "c7e6bd38dc57480a1b64fd8edad04e655fabd6b6",
    "/assets/img/menu.png": "a91ada739b006ae72ba1d959d1145bd8dce4f0ab",
    "/assets/img/metododepago.png": "054a3ff2b0d801e2ff0eb41ac9ae20ddf4947747",
    "/assets/img/nousito.png": "cb1bb194105149cbbd36484a7b54a86a6ab162cd",
    "/assets/img/persona.png": "863158b5739d2ab21a23991d051996991c6353de",
    "/assets/img/place.png": "ad702d8ff7c6d5a0e28586c4399eb5de029ba7af",
    "/assets/img/reloj.png": "593d8e42aa81a312e293b219f73655cf8e9ff802",
    "/assets/img/search-car.png": "05d5f04a831000aeef2c885c5742107bfb0b68fe",
    "/assets/img/shapes.png": "2e905e1d5b7e893fe370da8a16003cdaef45fe3a",
    "/assets/img/standard.png": "265a6f19613643676e748d42013721eeb75f2d15",
    "/assets/img/standard_vehicle.png": "aabb5dbd5875144f929cfe69efcf38ac5cccc7b7",
    "/assets/img/stops.png": "552f4cd168ac372d14ef17ee21b23d3aef9d5595",
    "/assets/img/travel-car.png": "265a6f19613643676e748d42013721eeb75f2d15",
    "/assets/img/user.jpg": "0237cdf4c08eac1820dc2358a789bd6e9d192c91",
    "/assets/img/user.png": "928c9b6f46e25ed30ba0c7fb83180bb94af2393d",
    "/assets/img/userProfile.png": "6f40f7fd957b4976ad998611cfa22e49ac946560",
    "/assets/img/userProfile2.png": "630e2ddb94d26952207d376fce39257591c1b068",
    "/assets/img/vehicle-register.png": "e61264239246e9386087e6af334ac8f9ca3d811a",
    "/assets/shapes.svg": "5413e95adabcb2cb639970051f55e0ddb64ace53",
    "/common.js": "9836f7f6686369da1c0d62a2766a599c0dc5a12a",
    "/default~pages-confirm-transfers-confirm-transfers-module~pages-history-history-module~pages-modals-i~d44f8de8.js": "b6f7c9d38b369dc5dd4e935fda4a7cd27ec13455",
    "/default~pages-dashboard-dashboard-module~pages-modals-in-travel-modal-in-travel-modal-module~pages-m~9330d6cd.js": "307cb63f1440584d3a735d2588502a30c1af75cb",
    "/default~pages-dashboard-dashboard-module~pages-modals-start-travel-start-travel-module.js": "4c3156e1c632527efc7aaa70cea0f95e34b9ad80",
    "/default~pages-login-login-module~pages-register-register-module.js": "6f6530ac32176e25aa1bb8ed69613aceff170e53",
    "/default~pages-modals-in-travel-modal-in-travel-modal-module~pages-travel-travel-module.js": "21a0530d5f21412fe5780c1a8fc73548fedf4641",
    "/default~pages-modals-recommendations-modal-recommendations-modal-module~pages-recommendations-recomm~657c8d3c.js": "cc1cccd3c01c64b33c83042015b48c3f5b27bb4b",
    "/default~pages-modals-schedule-trip-modal-schedule-trip-modal-module~pages-schedule-trip-schedule-trip-module.js": "8ce65f9d3cd60beb7a9431279fbfd28216af736e",
    "/default~pages-modals-select-destination-modal-select-destination-modal-module~pages-select-destinati~7073e38f.js": "e06932e14495040579e89a50a3ba17acd6619930",
    "/default~pages-modals-transfer-modal-transfer-modal-module~pages-transfer-transfer-module.js": "519623d732df23b87cdf0288bd21d40fca7e2a16",
    "/default~pages-modals-travel-details-modal-travel-details-modal-module~pages-travel-details-travel-de~ec48b730.js": "0d718ae1d2ab313a19528d84cf7a956a71f7a646",
    "/focus-visible-f4ad4f1a-js.js": "ddf69fb10f7a4c1915b9c127bc3ec132bf90165b",
    "/fondo-1.png": "e5d05a6471d3b1df8c6766f06e70da65507bb2f7",
    "/fondo-2.png": "287f9a1e2545d79f949f635cfce727617a88b93b",
    "/fondo-3.png": "bea3cf53bbd85b7e069bd231fbcaa25bc7e759fd",
    "/index.html": "3aa6537374b303ec9e63a6f116e88191699abde3",
    "/input-shims-73f15161-js.js": "b8b925d6def34f68286a2e3f8e34cc525bf2b5c1",
    "/keyboard-5742b5da-js.js": "5f839e48431e2852432968b2df6cc715ffa48238",
    "/main.js": "1101755d182b4db8a158cb40e6dfca94c0abd624",
    "/manifest.webmanifest": "9a088b7c4339228d1082e666ce105dc889bc180c",
    "/modules-dashboard-dashboard-module.js": "a136f8efc7cd7028210e500bb4c390486db6d89b",
    "/modules-dashboard-pages-new-stop-new-stop-module.js": "bed9c3b595dba2a154742fcb0498ed992cb77088",
    "/modules-home-home-module.js": "f637f2b5929a64eeec81d11adffe07479f0e3135",
    "/modules-home-pages-logout-logout-module.js": "a0f2874fad66e09df53d0bca787c55ec8e9889e5",
    "/pages-bank-data-bank-data-module.js": "180cb01dd1d2ff2a4c1c4901890d958b8d68f2bc",
    "/pages-chat-chat-module.js": "46a9e0ccd34a47feae97d33eb14c726e9be4b13c",
    "/pages-confirm-transfers-confirm-transfers-module.js": "9fe0631dc6c5d22325eed32b40d05d6d103d716c",
    "/pages-confirmed-trip-confirmed-trip-module.js": "8a36136e3d8818cdfbf92833310af421934e1bbf",
    "/pages-dashboard-dashboard-module.js": "c05a459d59fd24054ea3089ed904489d20eb683f",
    "/pages-destination-address-destination-address-module.js": "534f3e55043fb358cdc53dba6623ed67b1307a60",
    "/pages-driver-detail-driver-detail-module.js": "eec88ba36a79b3c27e33ab11ba893f5f0042bfe0",
    "/pages-edit-vehicle-data-edit-vehicle-data-module.js": "7d6f2565b29a6a342b7e990b4742598a9d91ce51",
    "/pages-email-verification-email-verification-module.js": "066fd856b54b330eb0af8f1ed83d6421033b1def",
    "/pages-forgot-password-forgot-password-module.js": "7bb174ff7eb8020c6f267db02d540ab2d93194da",
    "/pages-history-history-module.js": "d24ec6f03d4bfc7e3b982d60d1f9e42022f265f9",
    "/pages-home-home-module.js": "3b3d8e6324df740568f78f126cec4e5a467411ab",
    "/pages-login-login-module.js": "a173701970e33fc05d4d3f51cddde6781c4e0275",
    "/pages-modals-destination-address-modal-destination-address-modal-module.js": "333a67a3ac23382832e7cd13ca21a7dbf3ccd697",
    "/pages-modals-in-travel-modal-in-travel-modal-module.js": "af61251747c9407045dcb81ba04149b2c144c126",
    "/pages-modals-recommendations-modal-recommendations-modal-module.js": "ca7acfd086c56f33f01ec1fa129adb97b0ede948",
    "/pages-modals-schedule-trip-modal-schedule-trip-modal-module.js": "88530af0cd6237df0499576c2d6f0b5310fef1c0",
    "/pages-modals-select-destination-modal-select-destination-modal-module.js": "efd8427a1d615638cf69c015423109514b7e55ce",
    "/pages-modals-select-payment-modal-select-payment-modal-module.js": "b4e5dfde24584a2a18c18e5b5ebd26cfff685274",
    "/pages-modals-select-route-modal-select-route-modal-module.js": "52565766bf9f2c90622d98c2af5d99258674ebf2",
    "/pages-modals-select-stop-modal-select-stop-modal-module.js": "39f2cb9dfec5b99c0d43e065b3cdceebbf0d8d68",
    "/pages-modals-select-stop-schedule-modal-select-stop-schedule-modal-module.js": "642c23317524e6b3cae86a30b77708c4ca32ac23",
    "/pages-modals-select-vehicle-type-select-vehicle-type-module.js": "1e973ba9b26157399305f3274b5ccefafdd94e4d",
    "/pages-modals-start-travel-start-travel-module.js": "764d800410a63e06fc6a5dd25e4b2062abc0014d",
    "/pages-modals-transfer-modal-transfer-modal-module.js": "19385d1758698bd8b28b7aa1e894022438ec8c68",
    "/pages-modals-travel-details-modal-travel-details-modal-module.js": "06f24d2394abf0d1d748390bff52d7eefec6d0b3",
    "/pages-modals-ubication-destination-schedule-modal-ubication-destination-schedule-modal-module.js": "53eefbc613a2892ca86caf017ccfc8c271a94cba",
    "/pages-profile-profile-module.js": "b6cddc65f9d8da8d604eaec71da2e711c1ae8b14",
    "/pages-recommendations-recommendations-module.js": "cb46a322909effe29ee71b96d00cb8d27b3df127",
    "/pages-register-register-module.js": "edfca1865bac7ed1dcaa42893ff1cf8dbc753b8a",
    "/pages-request-menu-request-menu-module.js": "1cd22c1415de05c1fbaf88ea7c5d2326645fdaa2",
    "/pages-requests-requests-module.js": "ddc8722226cb7472ba9650a6dcf2741a2be40f4e",
    "/pages-review-transfer-review-transfer-module.js": "6d5f3089b34f39fa476d3516566b33b120991759",
    "/pages-reviews-reviews-module.js": "4fb1972ffc5fb6233cdf578f1f35be9e4edb7617",
    "/pages-schedule-trip-schedule-trip-module.js": "4376816764864c1355b0a58aab92b80e05076b53",
    "/pages-search-complete-search-complete-module.js": "554768e94dd637474d263e62d4c1b99b709c508b",
    "/pages-search-driver-search-driver-module.js": "57b5b27bd33847dcdacb56b101bffecd8297f494",
    "/pages-select-destination-select-destination-module.js": "d30145321084616ac189751be31a37fca0c8ea7e",
    "/pages-select-payment-type-select-payment-type-module.js": "91aea11fd8ddccc99d59d8ab0b03e136dc468f78",
    "/pages-select-route-select-route-module.js": "d31d4c40e200485a75c6fcc32237bd8e1bf55c2e",
    "/pages-select-stop-schedule-select-stop-schedule-module.js": "896ffbfdeb0e446396218cb53d43311b5ded8f9e",
    "/pages-select-stop-select-stop-module.js": "07c2a12a3e66e97d19f5dc3615ff123bba10c984",
    "/pages-select-vehicle-select-vehicle-module.js": "d6f6da99244038db240ec3db7ad853560ad53ea3",
    "/pages-shipping-parameters-shipping-parameters-module.js": "5a1ac0605d898f11ddf7b5b9e03b7c9f0f36368d",
    "/pages-stops-stops-module.js": "85028a547e536ac4509d0ed22316b91bc958082d",
    "/pages-successful-arrival-successful-arrival-module.js": "be54fc6250a1d6091abbd24c69766ebaea2d8b1e",
    "/pages-transfer-transfer-module.js": "1d17e625f0e1491732dd130cae02e8b937f0a171",
    "/pages-travel-complete-travel-complete-module.js": "b3226dfe960851c42b7f97afe4ef89c8315d46d4",
    "/pages-travel-details-travel-details-module.js": "200482b049c2bb819cd413f459908763c7fd82c8",
    "/pages-travel-travel-module.js": "1e20c744d0e19a0fd40711ace8614b837152c71f",
    "/pages-ubication-destination-schedule-ubication-destination-schedule-module.js": "61e010fe4080f989535abc5fbbc568a2b7f29fa7",
    "/pages-user-detail-user-detail-module.js": "df5aa23145f3d7fc1a11e8f66f550d872c2b24c6",
    "/pages-users-users-module.js": "c11eb0b7932cfff17afb87a6a5ea790542dfd645",
    "/polyfills-core-js.js": "d6027d044c8353d8c1c149619432732d18b638f7",
    "/polyfills-css-shim.js": "86b10aeba37364d5df13504152415c70a84b7218",
    "/polyfills-dom.js": "ae40cacfc6012200667d61996997ad22e5b3719d",
    "/polyfills.js": "a6d6ffbd8ddd5e9fc66099bc12bffb7cbbb37f29",
    "/runtime.js": "070a6247b023d2bef7e94c5f7b9390e48f3419b4",
    "/shadow-css-a3f00b33-js.js": "2318c4bd5e3e003d137dd0b9995c432d7dedb8d3",
    "/status-tap-bdecfebf-js.js": "fbab4d068f0a58dc878a1ad7696272779ae05e61",
    "/styles.css": "a8655da06db99e239ae86276d28ba4d18f81fba2",
    "/swipe-back-ee838cf8-js.js": "3dcaec0946a23e056c13ee689586c59d9ad214d7",
    "/swiper-bundle-44a9b1f9-js.js": "fe48de8f30ac2040fe86c0eaa9584f729213c1c4",
    "/tap-click-cc1ae2b2-js.js": "878c53182194e8c0e841f99fdb7d047194b674ac",
    "/test-test-module.js": "9a004c91207b20d09dd63d60c7017804aca61706",
    "/vendor.js": "6e0ee05cc73e138303210fccf890a3949a454d4f"
  },
  "navigationUrls": [
    {
      "positive": true,
      "regex": "^\\/.*$"
    },
    {
      "positive": false,
      "regex": "^\\/(?:.+\\/)?[^/]*\\.[^/]*$"
    },
    {
      "positive": false,
      "regex": "^\\/(?:.+\\/)?[^/]*__[^/]*$"
    },
    {
      "positive": false,
      "regex": "^\\/(?:.+\\/)?[^/]*__[^/]*\\/.*$"
    }
  ],
  "navigationRequestStrategy": "performance"
}